[
{
	"title":"Dr Front",
	"thumbnail":"assets/gfx/thumbnail.gif",
	"html":"<p>Forside redigering - egen, individuell innlogging</p>",
	"active":"true",
	"link":"https://fedrelandsvennen.drfront.aptoma.no/"
},
{
	"title":"Livestudio",
	"thumbnail":"https://mm.aftenposten.no/tools/livestudio/gfx/livstudio.jpg",
	"html":"<p>Bruk livestudio for å opprette saker som oppdateres løpende. Spesielle media elementer for Start og Lillesand.</p><p><b>Instruksjonsvideo:</b> <a target='_blank' href='https://vimeo.com/72802755'>https://vimeo.com/72802755</a>. Passord: aftenpostentv</p>",
	"active":"true",
	"link":"https://lisa.fvn.no/tools/live/index.php"
},
{
	"title":"Tidslinje",
	"thumbnail":"https://mm.aftenposten.no/tools/tidslinje/tidslinjeThumb.jpg",
	"html":"<p>Bruk tidslinjer for å forklare et hendelsesforløp over tid, liste opp viktige hendelser i en persons liv o.s.v. I publiseringsvertkøyet skriver du inn titler, beskrivelser og spesifiserer IDer til bilder og videoer.</p>",
	"active":true,
	"link":"https://lisa.fvn.no/tools/time/"
},
{
	"title":"Avstemmning",
	"thumbnail":"assets/gfx/thumbnail.gif",
	"html":"<p>Lag en åpen avsteming, brukernavn fvn, pass krsby2014</p>",
	"active":true,
	"link":"http://snowpoll.herokuapp.com/admin/"
},
{
	"title":"Leserinnspill",
	"thumbnail":"assets/gfx/thumb_innspill.png",
	"html":"<p>La leserne komme med sine innspill. NB! Eget innlogging på dette verktøyet.</p>",
	"active":true,
	"link":"http://innspill.medianorge.no/admin/index.php"
},
{
	"title":"Innsyn.no",
	"thumbnail":"assets/gfx/thumbnail.gif",
	"html":"<p>Tilgang til søk i postjournaler fra politi, universitet og helse <em>(tidligere Sørlandsporten)</em></p>",
	"active":true,
	"link":"http://www.innsyn.no/?utm_source=fvndash"
},
{
	"title":"Chartbeat",
	"thumbnail":"https://static2.chartbeat.com/images/marketing/products/editorial/metric-recirc.png",
	"html":"<p>Live trafikk og tidsbruk på FVN</p>",
	"active":"true",
	"link":"https://chartbeat.com/labs/publishing/bigboard/fvn.no"
},
{
	"title":"...?",
	"thumbnail":"assets/gfx/thumbnail.gif",
	"html":"<p>savner du noe? tips Jonas!</p>",
	"active":"false",
	"link":"http://fvn.no"
}
]