<?xml version="1.0" encoding="utf-8"?> <!-- Generator: IcoMoon.io --> <!DOCTYPE svg PUBLIC "-//W3C//DTD SVG 1.1//EN" "http://www.w3.org/Graphics/SVG/1.1/DTD/svg11.dtd"> <svg width="120" height="24" viewBox="0 0 120 24" fill="#303030" xmlns="http://www.w3.org/2000/svg" xmlns:xlink="http://www.w3.org/1999/xlink">
<polygon fill="#303030" points="61.642,2.235 60.49,1.082 49.572,12 60.49,22.918 61.642,21.765 51.878,12 "/>
<polygon fill="#303030" points="23.509,2.295 22.356,1.142 12.415,11.083 2.474,1.142 1.321,2.295 11.262,12.236 1.793,21.705 
	2.946,22.858 12.415,13.389 21.884,22.858 23.037,21.705 13.568,12.236 "/>
<polygon fill="#303030" points="99.582,1.082 98.429,2.235 108.194,12 98.429,21.765 99.582,22.918 110.499,12 "/>
</svg>