<?xml version="1.0" encoding="utf-8"?>
<!-- Generator: Adobe Illustrator 18.1.1, SVG Export Plug-In . SVG Version: 6.00 Build 0)  -->
<svg version="1.1" id="Layer_1" xmlns="http://www.w3.org/2000/svg" xmlns:xlink="http://www.w3.org/1999/xlink" x="0px" y="0px"
	 viewBox="0 0 164.4 24.6" enable-background="new 0 0 164.4 24.6" xml:space="preserve">
<path fill="#002561" d="M100.9,9c0.4-0.1,1.6-0.9,1.6-2.6c0-2-1.6-3-3.1-3c-1.3,0-2.7,0.9-3.2,2.5l0.5,0.2c0.5-1.5,1.6-2,2.6-2
	c1.3,0,2.1,0.9,2.1,1.6c0,0.4-0.1,0.8-0.5,0.9c-0.6,0.2-1.3-0.1-1.9-0.6c-1.3,1.2-2.9,2.4-4.5,3.3V13c0,1.2,0,2.7,1.4,3.4l-1.5,2.2
	c1.1,0.5,2.3,1.2,3.1,2c1-1,3-2.5,4.4-3.2v-5.1C102.3,11.3,102.2,9.8,100.9,9 M99.5,18.5c-0.7-0.8-1.9-1.7-2.9-2.1l2.7-4.1
	c0.2,0.2,0.2,0.5,0.2,0.7V18.5z M97.8,13.5c-0.2-0.3-0.2-0.5-0.2-0.8V8.1c1.3,1.1,2.6,1.2,3,1.1C100.6,9.2,97.8,13.4,97.8,13.5"/>
<path fill="#002561" d="M26.6,18.5c-0.8-0.2-2.2-0.8-2.2-3.5v-1l4.6-3.2l-2.6-4.9l-2.2,1.8l-2.4-1.8c-1.6,1.3-3.4,2.7-4.9,3.5v6.9
	c0,2.5,0.7,3.5,1.9,4.3c0,0,3.2-2.6,3.2-2.6c0.4,0.8,1.3,1.9,2.5,2.6l4.2-3l-0.3-0.5L26.6,18.5z M20.7,18.4c-0.7-0.5-1-0.9-1-2.9
	V8.1l1.9,1.4v6c0,1,0,1.5,0.2,2.1L20.7,18.4z M24.4,8.1c0,0,0.3,0.6,2,3.8l-2,1.4L24.4,8.1z"/>
<path fill="#002561" d="M111.1,5.9l-3,2.4c0-0.9-0.5-1.7-1.1-2c-1.1-0.7-0.8-1.4-0.4-2.4L106,3.7c-1.4,2.4-2.3,3.9-0.8,5.4v7.1
	c0,1.3-0.3,1.7-0.6,2.2c1.2,0.4,2.9,1.5,3.6,2.4c1.1-1,3.1-2.5,4.5-3.2v-7.4C112.8,7.4,112,6.8,111.1,5.9 M110,18.5
	c-0.5-0.5-1.3-1.2-1.9-1.6V9l1-0.8c0.9,0.6,0.9,1.6,0.9,2.5V18.5z"/>
<path fill="#002561" d="M52.9,18.5c-0.8-0.2-2.2-0.8-2.2-3.5l0-1l4.6-3.3l-2.7-4.8c-1.4,1.2-3.1,2.5-4.8,3.4v6.5
	c0,2.8,1.3,4,2.9,4.8l4.2-3l-0.3-0.5L52.9,18.5z M50.7,8.1c0,0,0.3,0.6,2,3.8l-2,1.4L50.7,8.1z"/>
<path fill="#002561" d="M120.1,18.5c-0.8-0.2-2.2-0.8-2.2-3.5l0-1l4.6-3.3l-2.7-4.8c-1.4,1.2-3.1,2.5-4.8,3.4v6.5
	c0,2.8,1.3,4,2.9,4.8l4.2-3l-0.3-0.5L120.1,18.5z M117.9,8.1c0,0,0.3,0.6,2,3.8l-2,1.4L117.9,8.1z"/>
<path fill="#002561" d="M150.8,18.5c-0.8-0.2-2.2-0.8-2.2-3.5l0-1l4.6-3.3l-2.7-4.8c-1.4,1.2-3.1,2.5-4.8,3.4v6.5
	c0,2.8,1.3,4,2.9,4.8l4.2-3l-0.3-0.5L150.8,18.5z M148.6,8.1c0,0,0.3,0.6,2,3.8l-2,1.4L148.6,8.1z"/>
<path fill="#002561" d="M89.7,5.5l-1.8-1.1c-1.8-1.1-2.5-1.6-2.5-2.2c-0.1-0.8,0.6-1.4,1.7-1.1l0.1-0.6c-0.9-0.3-2,0-2.6,0.6
	c-0.4,0.4-1,1.4-0.8,2.7c0.2,1.1,0.9,1.9,2.4,2.8L87,7.1c0,0-2.3,1.2-2.3,1.2l0,7.8c0,1.3-0.3,1.7-0.6,2.2c1.2,0.4,2.9,1.5,3.6,2.4
	c1.1-1,3.1-2.5,4.5-3.2V10C92.1,7.9,91.9,6.9,89.7,5.5 M89.3,18.5c-0.5-0.5-1.3-1.2-1.9-1.6V7.4c1,0.7,1.9,1.1,1.9,2.4V18.5z"/>
<path fill="#002561" d="M158,8.3l3-2.4c0.5,0.7,1.6,1.9,2.4,2.4c-0.6,0.6-0.6,1.4-0.6,2.2V17c0,1.1,0.4,1.5,0.6,1.5l0.8-0.7l0.4,0.4
	l-2.8,2.4c-1.1-0.5-1.7-1.6-1.7-3V9.3l-0.9-1L158,9v7.6c0,1.1,0.3,1.4,0.6,1.8l-2,2.2l-2-2.2c0.3-0.4,0.6-0.7,0.6-1.8v-6.2
	c0-1,0-2-0.4-2.4l-0.8,0.7l-0.4-0.4l2.9-2.4C157.2,6.4,157.8,7.1,158,8.3"/>
<path fill="#002561" d="M138.4,8.3l3-2.4c0.5,0.7,1.6,1.9,2.4,2.4c-0.6,0.6-0.6,1.4-0.6,2.2V17c0,1.1,0.4,1.5,0.6,1.5l0.8-0.7
	l0.4,0.4l-2.8,2.4c-1.1-0.5-1.7-1.6-1.7-3V9.3l-0.9-1L138.4,9v7.6c0,1.1,0.3,1.4,0.6,1.8l-2,2.2l-2-2.2c0.3-0.4,0.6-0.7,0.6-1.8
	v-6.2c0-1,0-2-0.4-2.4l-0.8,0.7L134,8.3l2.9-2.4C137.6,6.4,138.3,7.1,138.4,8.3"/>
<path fill="#002561" d="M127.3,8.3l3-2.4c0.5,0.7,1.6,1.9,2.4,2.4C132,9,132,9.7,132,10.6V17c0,1.1,0.4,1.5,0.6,1.5l0.8-0.7l0.4,0.4
	l-2.8,2.4c-1.1-0.5-1.7-1.6-1.7-3V9.3l-0.9-1L127.3,9v7.6c0,1.1,0.3,1.4,0.6,1.8l-2,2.2l-2-2.2c0.3-0.4,0.6-0.7,0.6-1.8v-6.2
	c0-1,0-2-0.4-2.4l-0.8,0.7l-0.4-0.4l2.9-2.4C126.5,6.4,127.1,7.1,127.3,8.3"/>
<path fill="#002561" d="M76.5,8.3l3-2.4c0.5,0.7,1.6,1.9,2.4,2.4c-0.6,0.6-0.6,1.4-0.6,2.2V17c0,1.1,0.4,1.5,0.6,1.5l0.8-0.7
	l0.4,0.4l-2.8,2.4c-1.1-0.5-1.7-1.6-1.7-3V9.3l-0.9-1L76.5,9v7.6c0,1.1,0.3,1.4,0.6,1.8l-2,2.2l-2-2.2c0.3-0.4,0.6-0.7,0.6-1.8v-6.2
	c0-1,0-2-0.4-2.4l-0.8,0.7l-0.4-0.4L75,5.9C75.7,6.4,76.4,7.1,76.5,8.3"/>
<path fill="#002561" d="M59.5,17.6c0.2,0.3,0.5,0.6,0.7,0.9l0.8-0.7l0.4,0.4l-2.9,2.5c-0.7-1-1.7-2-2.4-2.4c0.3-0.4,0.6-0.8,0.6-2.1
	V5.8c0-1.9,0-3.6-0.8-5.3l0.5-0.2c0.2,0.3,0.6,1.4,0.8,2.4c0.8-2,2.6-2.4,3.5-2.4c-1.1,1.3-1.2,3-1.2,5.8V17.6z"/>
<path fill="#002561" d="M47.5,8.1l-1.9,2.2L44,8.4l-0.2,0.2c0,0.5,0,0.6,0,1.6v7.4c0.2,0.3,0.6,0.7,0.7,0.9l1.1-0.9l0.4,0.4
	l-3.2,2.7c-0.6-0.8-1.5-1.8-2.4-2.4c0.3-0.4,0.6-0.7,0.6-2.2v-4.6c0-1.6,0-3-0.4-3.4l-0.8,0.7l-0.4-0.4l2.8-2.5c0.6,0.4,1.2,1,1.4,2
	l1.8-2L47.5,8.1z"/>
<path fill="#002561" d="M3.5,7.8c0.9,0,2.1-0.5,2.7-2L6.8,6C6.5,7.3,5.1,8.6,3.2,8.4c-1.4-0.1-2.5-1-2.9-2.2c-0.5-1.5-0.3-3.3,1-4.7
	c1.6-1.7,4.5-2,6.6-0.7c1.9,1.2,3.1,3,4.6,3.1c0.4,0,1.3-0.3,1.2-1.3c-0.1-1-1.7-2-3.3-1.1L10,0.9c1.4-1,4.2-0.6,4.6,1.8
	c0.2,1.2-0.5,3.5-3.2,3.7c-0.4,0.3-0.9,1.2-0.9,2.1c0,0.7,0.1,1.2,0.4,1.8c0.2-1,1.1-2,2.4-2c1.2,0,2.1,0.8,2.1,2
	c0,1.2-0.9,1.8-1.7,1.8c-0.8,0-1.6-0.7-1.6-1.5c0-0.6,0.3-0.9,0.4-1.1c0.2-0.2,0.5-0.3,0.7-0.4c0.1,0,0.1,0,0.1,0
	c0-0.1-0.3-0.1-0.6-0.1c-0.8,0.2-1.1,0.9-1.2,1.1c-0.1,0.3-0.2,0.8-0.1,1.3c0.1,0.8,0.6,1.5,0.9,2c0.5,0.9,1.6,2.8,1.4,5
	c-0.1,1.1-0.4,2-0.9,3c-0.8,1.5-3,3.1-5.5,3.1c-2.6,0-5.1-1.4-6-4.2C1,19.4,0.9,17.7,1.6,16c0.3-0.7,0.7-1.3,1.2-2.1
	c0.2-0.3,0.6-1,0.6-1.5c0-0.8-0.6-1-0.9-0.9c-0.8,0.1-1.6,1.3-1.1,2.8l-0.6,0.2c-0.7-1.4-0.1-3.3,1.5-3.7c1.3-0.4,2.8,0.3,3.4,1.6
	c0.8,1.9-0.4,3.8-1,4.9c-1.9,3.8,0,6.7,2.6,6.7c2.7,0,4.3-3,2.7-6.6c-1-2.1-2.2-4.1-2.2-6.4C8,8.8,9.1,7.4,10.7,6.4
	C7.5,6,6,3.3,4,2.7C3.6,2.6,2.5,2.4,1.7,3.1C1.1,3.7,0.6,4.7,1,6C1.4,7,2.4,7.8,3.5,7.8"/>
<path fill="#002561" d="M71.3,17.8l-0.8,0.7c-0.2,0-0.6-0.5-0.6-1.5v-5.3c0-1.3,0-2.2,0.6-2.9c-1.1-0.7-2.6-2-3.3-2.8
	c-1.5,1.3-3.2,2.6-4.8,3.5v7.8c0,1.9,1,3.1,1.7,3.5l3-2.5c0.1,1.1,0.8,2.1,1.7,2.5l2.8-2.4L71.3,17.8z M67.2,17.5l-1.1,0.9
	c-0.4-0.3-0.8-0.8-0.8-2V8.1l1.9,1.7V17.5z"/>
<path fill="#002561" d="M35.7,5.5l-1.8-1.1c-1.8-1.1-2.5-1.6-2.5-2.2c-0.1-0.8,0.6-1.4,1.7-1.1l0.1-0.6c-0.9-0.3-2,0-2.6,0.6
	c-0.4,0.4-1,1.4-0.8,2.7C30,5,30.8,5.7,32.2,6.6l0.7,0.5c0,0-2.3,1.2-2.3,1.2l0,7.8c0,1.3-0.3,1.7-0.6,2.2c1.2,0.4,2.9,1.5,3.6,2.4
	c1.1-1,3.1-2.5,4.5-3.2V10C38.1,7.9,37.9,6.9,35.7,5.5 M35.3,18.5c-0.5-0.5-1.3-1.2-1.9-1.6V7.4c1,0.7,1.9,1.1,1.9,2.4V18.5z"/>
</svg>
